hw7
…
0.884 sec elapsed

collect_metrics():    

mean : rmse(validation    )

 : mean    penalty  

code

tune_result %>% 
  collect_metrics()

# A tibble: 50 x 7
    penalty .metric .estimator  mean     n std_err .config            
      <dbl> <chr>   <chr>      <dbl> <int>   <dbl> <chr>              
 1 1.00e-10 rmse    standard   0.120     1      NA Preprocessor1_Mode
 2 1.60e-10 rmse    standard   0.120     1      NA Preprocessor1_Mode
 3 2.56e-10 rmse    standard   0.120     1      NA Preprocessor1_Mode
 4 4.09e-10 rmse    standard   0.120     1      NA Preprocessor1_Mode
 5 6.55e-10 rmse    standard   0.120     1      NA Preprocessor1_Mode
 6 1.05e- 9 rmse    standard   0.120     1      NA Preprocessor1_Mode
 7 1.68e- 9 rmse    standard   0.120     1      NA Preprocessor1_Mode
 8 2.68e- 9 rmse    standard   0.120     1      NA Preprocessor1_Mode
 9 4.29e- 9 rmse    standard   0.120     1      NA Preprocessor1_Mode
10 6.87e- 9 rmse    standard   0.120     1      NA Preprocessor1_Mode
#  with 40 more rows
…
code

elastic_model <- 
    linear_reg(penalty = tune_best$penalty, # 0.095
               mixture = 0) %>%
    set_engine("glmnet")
elastic_fit <- 
    elastic_model %>% 
    fit(sale_price ~ ., data = train2)
options(max.print = 10)
elastic_fit %>% 
    tidy() %>% 
    filter(estimate > 0.001)

# A tibble: 111 x 3
   term           estimate penalty
   <chr>             <dbl>   <dbl>
 1 (Intercept)    12.0      0.0373
 2 lot_frontage    0.0109   0.0373
 3 lot_area        0.0178   0.0373
 4 overall_qual    0.0554   0.0373
 5 overall_cond    0.0360   0.0373
 6 year_built      0.0296   0.0373
 7 year_remod_add  0.0195   0.0373
 8 mas_vnr_area    0.00369  0.0373
 9 bsmt_fin_sf1    0.0270   0.0373
10 bsmt_fin_sf2    0.00824  0.0373
#  with 101 more rows
…
