★: 전처리후 oulier 제거와 training
…
Tuning \(\lambda\) and \(\alpha\) validation_split(학습, test데이터)에다가 param_grid를 fitting한다.

어떤 것이 좋은지 평가하는 방식은 rmse(soot mean square error)를 이용하겠다.

-> tune_result에 각 람다 값에 대한 퍼포먼스가 담기게 된다.

0.888 sec elapsed

collect_metrics(): 퍼포먼스가 담긴 것들을 모아봐라

mean 값: rmse값(validation에서 나온 것 들의 평균)

우리의 목표: mean 값이 최소가 되는 penalty값을 구하는 것

# A tibble: 50 x 7
    penalty .metric .estimator  mean     n std_err .config            
      <dbl> <chr>   <chr>      <dbl> <int>   <dbl> <chr>              
 1 1.00e-10 rmse    standard   0.120     1      NA Preprocessor1_Mode…
 2 1.60e-10 rmse    standard   0.120     1      NA Preprocessor1_Mode…
 3 2.56e-10 rmse    standard   0.120     1      NA Preprocessor1_Mode…
 4 4.09e-10 rmse    standard   0.120     1      NA Preprocessor1_Mode…
 5 6.55e-10 rmse    standard   0.120     1      NA Preprocessor1_Mode…
 6 1.05e- 9 rmse    standard   0.120     1      NA Preprocessor1_Mode…
 7 1.68e- 9 rmse    standard   0.120     1      NA Preprocessor1_Mode…
 8 2.68e- 9 rmse    standard   0.120     1      NA Preprocessor1_Mode…
 9 4.29e- 9 rmse    standard   0.120     1      NA Preprocessor1_Mode…
10 6.87e- 9 rmse    standard   0.120     1      NA Preprocessor1_Mode…
# … with 40 more rows
…
Set Ridge regression model and fitting

Set mixture is equal to zero refering the Ridge regression in glmnet since the

위에서 구한 값으로 train2를 학습시킨다.

# A tibble: 111 x 3
   term           estimate penalty
   <chr>             <dbl>   <dbl>
 1 (Intercept)    12.0      0.0373
 2 lot_frontage    0.0109   0.0373
 3 lot_area        0.0178   0.0373
 4 overall_qual    0.0554   0.0373
 5 overall_cond    0.0360   0.0373
 6 year_built      0.0296   0.0373
 7 year_remod_add  0.0195   0.0373
 8 mas_vnr_area    0.00369  0.0373
 9 bsmt_fin_sf1    0.0270   0.0373
10 bsmt_fin_sf2    0.00824  0.0373
# … with 101 more rows
…
Set Ridge regression model and fitting

Set mixture is equal to zero refering the Ridge regression in glmnet since the 위에서 구한 값으로 train2를 학습시킨다.

에러

# A tibble: 111 x 3
   term           estimate penalty
   <chr>             <dbl>   <dbl>
 1 (Intercept)    12.0      0.0373
 2 lot_frontage    0.0109   0.0373
 3 lot_area        0.0178   0.0373
 4 overall_qual    0.0554   0.0373
 5 overall_cond    0.0360   0.0373
 6 year_built      0.0296   0.0373
 7 year_remod_add  0.0195   0.0373
 8 mas_vnr_area    0.00369  0.0373
 9 bsmt_fin_sf1    0.0270   0.0373
10 bsmt_fin_sf2    0.00824  0.0373
# … with 101 more rows
…
