★: Ridge, Lasso penalty
…
0.906 sec elapsed

collect_metrics(): 퍼포먼스가 담긴 것들을 모아봐라

mean 값: rmse값(validation에서 나온 것 들의 평균)

우리의 목표: mean 값이 최소가 되는 penalty값을 구하는 것

code

tune_result %>% 
  collect_metrics()

# A tibble: 100 x 7
    penalty .metric .estimator  mean     n std_err .config            
      <dbl> <chr>   <chr>      <dbl> <int>   <dbl> <chr>              
 1 1.00e-10 rmse    standard   0.120     1      NA Preprocessor1_Mode…
 2 1.26e-10 rmse    standard   0.120     1      NA Preprocessor1_Mode…
 3 1.59e-10 rmse    standard   0.120     1      NA Preprocessor1_Mode…
 4 2.01e-10 rmse    standard   0.120     1      NA Preprocessor1_Mode…
 5 2.54e-10 rmse    standard   0.120     1      NA Preprocessor1_Mode…
 6 3.20e-10 rmse    standard   0.120     1      NA Preprocessor1_Mode…
 7 4.04e-10 rmse    standard   0.120     1      NA Preprocessor1_Mode…
 8 5.09e-10 rmse    standard   0.120     1      NA Preprocessor1_Mode…
 9 6.43e-10 rmse    standard   0.120     1      NA Preprocessor1_Mode…
10 8.11e-10 rmse    standard   0.120     1      NA Preprocessor1_Mode…
# … with 90 more rows
…
code

elastic_model <- 
    linear_reg(penalty = tune_best$penalty, # 0.095
               mixture = 0) %>%
    set_engine("glmnet")
elastic_fit <- 
    elastic_model %>% 
    fit(sale_price ~ ., data = train2)
options(max.print = 10)
elastic_fit %>% 
    tidy() %>% 
    filter(estimate > 0.001)

# A tibble: 112 x 3
   term           estimate penalty
   <chr>             <dbl>   <dbl>
 1 (Intercept)    12.0      0.0385
 2 lot_frontage    0.0109   0.0385
 3 lot_area        0.0177   0.0385
 4 overall_qual    0.0553   0.0385
 5 overall_cond    0.0358   0.0385
 6 year_built      0.0292   0.0385
 7 year_remod_add  0.0195   0.0385
 8 mas_vnr_area    0.00380  0.0385
 9 bsmt_fin_sf1    0.0269   0.0385
10 bsmt_fin_sf2    0.00818  0.0385
# … with 102 more rows
…
